<?xml version="1.0" encoding="UTF-8"?>
<svg width="124px" height="46px" viewBox="0 0 124 46" version="1.1" xmlns="http://www.w3.org/2000/svg" xmlns:xlink="http://www.w3.org/1999/xlink">
    <!-- Generator: sketchtool 51.1 (57501) - http://www.bohemiancoding.com/sketch -->
    <title>A9C7C68E-C7F4-44E1-98BD-9C29C5E3BC3B</title>
    <desc>Created with sketchtool.</desc>
    <defs></defs>
    <g id="Symbols" stroke="none" stroke-width="1" fill="none" fill-rule="evenodd">
        <g id="template_text-2" transform="translate(-5.000000, -5.000000)" fill="#00A194" stroke="#178277">
            <g id="Group-2-Copy" transform="translate(5.000000, 5.000000)">
                <path d="M1.75145731,13.4600213 C0.958201226,14.1250305 0.5,15.1070659 0.5,16.1421951 L0.5,29.8578049 C0.5,30.8929341 0.958201226,31.8749695 1.75145731,32.5399787 L16.2352723,44.6821737 C16.8654411,45.2104622 17.6615003,45.5 18.483815,45.5 L120,45.5 C121.932997,45.5 123.5,43.9329966 123.5,42 L123.5,4 C123.5,2.06700338 121.932997,0.5 120,0.5 L18.483815,0.5 C17.6615003,0.5 16.8654411,0.789537806 16.2352723,1.31782629 L1.75145731,13.4600213 Z M7.5,26.5 C5.84314575,26.5 4.5,25.1568542 4.5,23.5 C4.5,21.8431458 5.84314575,20.5 7.5,20.5 C9.15685425,20.5 10.5,21.8431458 10.5,23.5 C10.5,25.1568542 9.15685425,26.5 7.5,26.5 Z" id="Combined-Shape"></path>
            </g>
        </g>
    </g>
</svg>